<svg width="32" height="32" viewBox="0 0 32 32" fill="none" xmlns="http://www.w3.org/2000/svg">
<g clip-path="url(#clip0_97_2907)">
<path d="M24.2755 7.10733C24.0258 7.12549 23.7808 7.18407 23.5498 7.28077H23.5467C23.3251 7.36866 22.2712 7.81199 20.669 8.48399L14.9274 10.9021C10.8075 12.6365 6.75762 14.3445 6.75762 14.3445L6.80584 14.3259C6.80584 14.3259 6.52662 14.4177 6.23496 14.6176C6.05477 14.7322 5.89971 14.8822 5.77918 15.0585C5.63607 15.2685 5.52096 15.5898 5.56373 15.9219C5.63373 16.4834 5.99773 16.8202 6.25907 17.0061C6.52351 17.1943 6.77551 17.2822 6.77551 17.2822H6.78173L10.5796 18.5617C10.75 19.1084 11.737 22.3533 11.9742 23.1008C12.1142 23.5472 12.2503 23.8264 12.4206 24.0396C12.5031 24.1484 12.5995 24.2394 12.7154 24.3125C12.7756 24.3476 12.8399 24.3753 12.9067 24.395L12.8678 24.3857C12.8795 24.3888 12.8888 24.3981 12.8974 24.4012C12.9285 24.4098 12.9495 24.4129 12.9892 24.4191C13.5904 24.6011 14.0734 24.2278 14.0734 24.2278L14.1006 24.206L16.343 22.1643L20.1012 25.0476L20.1867 25.0841C20.97 25.4279 21.7633 25.2365 22.1825 24.899C22.6048 24.5591 22.769 24.1243 22.769 24.1243L22.7962 24.0543L25.7004 9.17622C25.7828 8.80911 25.8038 8.46533 25.7128 8.13166C25.619 7.79397 25.4023 7.50353 25.1054 7.31733C24.8561 7.16575 24.5669 7.09259 24.2755 7.10733ZM24.197 8.70177C24.1938 8.75077 24.2032 8.74533 24.1814 8.83944V8.84799L21.3044 23.5713C21.292 23.5923 21.271 23.6382 21.2134 23.6841C21.1527 23.7323 21.1045 23.7627 20.8517 23.6623L16.2551 20.1382L13.4784 22.6691L14.0617 18.9436L21.572 11.9435C21.8815 11.6558 21.7781 11.5951 21.7781 11.5951C21.7998 11.242 21.3106 11.4917 21.3106 11.4917L11.8404 17.3584L11.8373 17.3429L7.29818 15.8145V15.8114L7.28651 15.8091C7.29447 15.8065 7.30226 15.8033 7.30984 15.7998L7.33473 15.7873L7.35884 15.7788C7.35884 15.7788 11.4118 14.0708 15.5317 12.3363C17.5944 11.4675 19.6726 10.5926 21.271 9.91744C22.8693 9.24622 24.0507 8.75388 24.1176 8.72744C24.1814 8.70255 24.1511 8.70255 24.197 8.70255V8.70177Z" fill="white"/>
</g>
<defs>
<clipPath id="clip0_97_2907">
<rect width="24.8889" height="24.8889" fill="white" transform="translate(4 4)"/>
</clipPath>
</defs>
</svg>
